{
    "pic": "gugu.png",
    "content": "<h1>一只共享绒布球</h1><p>“唔，估计还需要狠一点，可以再等会。盯紧了，决不能让这个绒布球最后的贞操落到这个人渣的手里。”</p>\n<p>绒布球共享总公司——在这个地区靠着行政手段垄断了整个绒布球共享行业的企业。虽然公司注册名是绒布球共享总公司，但却事实上掌握了这块土地上的教育、医疗、安保等等基础服务。平时虽然也有反对的声音，但至少在这个资本掌握一切的年代，这个小县城竟能维持住旧时对唆麻的管制，对洗脑的限制和相对宽松的阶级流动。在这个美好的时代，甚至有点偏向野蛮人保留区了。</p>\n<p>人渣玩弄着手里的遥控，不得不说科技技术的力量是强大的。无论是想让绒布球水流不止，还是都积攒在可怜的小肉球里面。轻轻按一下遥控上的选项，就能随意调控。人渣也貌似并不急着夺走这只绒布球的贞操，毕竟，他人生中第一次，应该也是最后一次，只是动动手指，就能让面前一只可爱的绒布球红着脸，按着自己的小肉团，咬紧了牙关抗拒自己的命令。</p>\n<p>“呜，你这样，可”，绒布球彻底放弃了保持自己作为一个男人的尊严，服从了项圈的强迫，“可是违法的！”</p>\n<p>“哈哈，违法，违法的事情小爷我可是没少做。你们这种rbq，就该好好给真男人服务。”，人渣边脱裤子边抓着绒布球的头发，“现在给爷吹，要不然，我倒要看看这惩罚模块是什么个样子！”</p>\n<p>人渣拿起遥控器随手一按，项圈“滴”了一声，开始收紧。和上回不太一样，这回项圈直接把绒布球的呼吸整个卡死了。紧接着，如同把数万根针从各个方向穿过绒布球的脖子一样，电流给绒布球带来了可观的痛苦。项圈一圈的电极释放着能把人电晕的高压电，让绒布球在先被电晕，再通过刺激神经让绒布球清醒回来。绒布球彻底瘫在了地上，两眼如濒死的草鱼一样，人渣也不管自己有没有关掉惩罚，扒下了绒布球的小裙子……</p>\n<p>“人生，就这么要结束了嘛”</p>\n<p>“唔，这是……就感觉来看，是绒布球总公司的拘束间嘛”，虽然法律没有规定，但为了确保绒布球不会因为摘掉控制设备能自慰进而使得敏感度下降，设备更换的时候绒布球是被拘束住的。绒布球毕竟因为数据老是0，经常来公司检查是不是作弊。甚至有点习惯于穿着拘束衣睡觉了。</p>\n<p>“早啊，可爱的小绒布球。”，一个穿着类似拘束衣，但没有把带子固定起来的女孩，或者至少看起来是女孩纸的人说道，“我的主人等你很久了哦”</p>\n<p>公司整体的设计并不是那么的有“现代科技”的样子，灰白色的白墙和淡绿色的塑胶地板有点像医院。形形色色的人走在公司里，或是因为没有钱，把自己卖给了公司的“肉”，拖着沉重的镣铐，做着清扫工作；或是几个刚签了协议，有点羞涩的遮着裸体的自己。他们很快就会得到一套由装备部3D打印制作出来的绒布球装备，在大街小巷上被各种调教；</p>\n<p>“唔，咱，不是说，哪怕戴上绒布球装备也可以选择不被随意使用的嘛”，绒布球被那个女孩纸放到了轮椅上，解开了头部的拘束，“呜～”</p>\n<p>“你的贞操还在哦。不过细节的我就不能说了，能被我的主人宠幸，你真是很幸福呢。”</p>\n<p>柳暗花明般的绕了好几圈之后，那个女孩把这只绒布球推到了一个电梯里。把自己的手背往读卡器上贴了一下，从电梯里面走出去了。</p>\n<p>电梯静静的升到了顶楼——绒布球从来都没有来过这个地方。</p>"
  }