{
    "pic": "gugu.png",
    "content": "# 一只共享绒布球\n\n\n\n\n\n“不要！咱不要被奴役，哼。”\n\n\n\n\n\n“嘛，算了。”，一个穿着传统西服，花色领带系的稍稍有点歪，金质的集体徽章明显表示出站在绒布球面前的，不是一个简单的人物，“不管怎样，我要带着你去看个表演……拘束嘛，下身先解开好了，毕竟只让带一个绒布球。”\n\n\n\n\n\n“咱……”\n\n\n\n\n\n“对了，先把嘴塞住好了。”\n\n\n\n\n\n话音刚落，女仆便利落地把从身后掏出了一个简单的口球，塞到了绒布球的小嘴里。手上下翻飞了几下，绒布球的腿便又重获自由了。\n\n\n\n\n\n“嗯，去停机坪吧。”\n\n\n\n\n\n停机坪上，穿着统一的女仆装的人们正在上下奔跑，给飞机的起飞做着准备。对于一般人而言，的确是很震撼吧。数以百计的女仆穿着统一的制服奔波在机场上，有条不紊的准备着起飞的事项。而这一切都随着她们的主人出现而暂停：如冲着电视机按下遥控键一样，数百个女仆齐刷刷的行了一个女仆礼，而机场的各项秩序却并没有因为这个而终止。\n\n\n\n\n\n“飞往总礼堂。”\n\n\n\n\n\n飞机从停机坪上迅速而平稳的升高到2400米，随后朝着一个方向飞了出去。绒布球紧紧的盯着航空器的窗户，看着公司的大楼，整个城市都渐渐消失在了视野中。如果自己是一般的居民的话，一辈子应该也不会有这种鸟瞰城市的机会。\n\n\n\n\n\n“距离您到达总礼堂还有大概一小时。”\n\n\n\n\n\n“不用那么着急。反正那种定期表演也挺没劲的。对了，去礼堂的话，先称呼我‘主人’吧”\n\n\n\n\n\n“唔……哼。”，绒布球只是盯着窗外的风景，震惊于这些从未见过的景观：先是一片白色的建筑，互相被蜂窝状的巨大的城墙隔开。整个建筑群在一个小岛屿上，飞越了一小片海峡之后，陆地又出现在了绒布球的眼前。只不过，地上的屋子由完全的白色的建筑变得有了一点点色彩，每隔一段时间就有一个的或是金色或是紫色或是蓝色的高塔……\n\n\n\n\n\n“愿意的话，一会回来的时候可以带你看看这些建筑哦。不过你为什么那么抗拒被日……”\n\n\n\n\n\n绒布球并没有回话，两个人之间的沉默一直维持到了飞机停稳，绒布球被牵到了会场里，被工作人员放在了观赏席旁边的小笼子里。整个舞台和正常的表演不太一样，中间隔着一个铁栅栏组成的笼子。外面的人看里面，就像看鸟笼子一样。\n\n\n\n\n\n“那么，一月一度的宴会又开始了哦！今天的主题是……”，主持人故意卖了个关子，随手一挥，几个被身体改造成动物模样的人（绒布球已经分不清了，但看样子应该是由人改造而成的），被后面花里胡哨的人造尾巴驱动着，抽搐着爬到了舞台上，“动物！”\n\n\n\n\n\n主持人牵着一群rbq，从台后面的一个通道走了出来，拿起手中的鞭子，冲着台上的这些改造动物一个一个抽了下去，如同魔法一样，只要被鞭子轻轻接触到，立刻，混杂着血、尿和疑似精液的浑浊的液体，喷射在了它们的前面。\n\n\n\n\n\n台上的主持人，正随意的指挥着这群被改造成各式各样的动物的“人”们，或是跳过通着高压电的铁圈，或是拿鞭子赶着他们四处乱跑。或是故意让一个rbq追赶另一个，让台下看着他们被调教的的渴难耐的样子。或是，直接把rbq电的死去活来，美名其曰“自然的美学”。\n\n\n\n\n\n“据说今天除了这些常见的强制射精啊，人体改造什么的，还有个从街上随便抓来的，和旧世纪的真的动物交配呢。”，几个穿着同样的礼服的人，身下牵着一个被完全改造成动物，上面缠绕着各种机械部件的“人”，正饶有兴趣的交流着，“明呢？真不愧是旧世代的人啊。看看你，到现在还在遵循古早的习惯，现在媚药可没有以前那些副作用。就算用苏麻也简单得多。”\n\n\n\n\n\n“那么，相信大家也一定期待很久了的，演出的压轴好戏！”，主持人把之前无论是还蹦跶的和已经摊死在台上的rbq都清理了清理，“让旧世代的犬，来对试图侵犯可爱小绒布球的罪人进行处罚哦！”\n\n\n\n\n\n台上的灯光齐刷刷的暗了下来，紧接着集中到了一点上：一个戴着镣铐的人，正嚎叫着难以理解的声音。绝望的撞着笼子，试图从里面逃出去。紧接着，几条肯定是被恶意打过媚药的中华田园犬，撕咬着，把他重新拖回了舞台的中央。野蛮的兽性迸发着，在整个舞台上，犬们寻找着一个能让自己舒服的洞，无论它实际上是菊穴还是嘴，粗暴的，把自己经过人类改造的又硬又粗的肉棒插到这个可怜的罪犯体内，贯穿它，让自己写在DNA里的使命在这个可怜的罪犯的各种洞里完成，哪怕这和繁殖一点关系都没有……\n\n\n\n\n\n“呵，重口味”，明，也就是绒布球的主人，似乎对这种表演，并不感兴趣。\n\n\n\n\n\n“那就给你带个好消息来吧，既然你那么喜欢你那种旧世代的城市，一年之内都可以不用来这边了哦。”，那几个人坏笑着，看了看笼子里正害怕的蜷缩在角落里的小绒布球，“既然你这么能让明喜欢，你们俩就好好在你们的城市里度蜜月吧！”",
    "isMarkDown": true
  }