{
  "pic": "gugu.png",
  "content": "# 一只共享绒布球\n\n\n\n\n\n\n\n又是绒布球习惯的米白色的屋子，窗子里射入的温柔的阳光，已经白天了。\n\n\n\n\n\n旁边的女仆站在床边，背对着绒布球。大概是等了一晚上？也或许她们是轮班的吧。绒布球依旧被拘束在床上，看来是只有让女仆们把自己解开了。\n\n\n\n\n\n“唔，明去哪里了……”\n\n\n\n\n\n女仆看绒布球已经醒了，便利落的把绒布球从拘束床上解了下来，让绒布球自己活动了活动身子，毕竟昨晚已经高潮到昏厥的绒布球，的的确确需要活动活动自己的筋骨。\n\n\n\n\n\n“主人大人还有公务需要处理。”\n\n\n\n\n\n“哼，明明……明明把咱，呜，算了”，绒布球稍稍捏了捏抱在怀里的枕头，小肉球又稍稍动了动，似乎对昨天的高潮既怀念，又害怕，“吃饭……”\n\n\n\n\n\n另一只被捆着后手缚，戴着看上去很沉重的明闪闪的脚镣的女仆跪坐在了绒布球的身前。食物被放在了这只女仆胸前的托盘里，就像是一件家具一样。一个热腾腾的毛巾塞满了这只女仆的小嘴。\n\n\n\n\n\n“哼，只是这些嘛。”\n\n\n\n\n\n绒布球看了看放在女仆胸前的筷子，犹豫了一下，还是把它拿了起来。饭菜很可口，比起自己在学校里被强迫控制饮食计划里面的生菜夹面包要强不知道多少倍。蓬松的蛋糕，\n\n\n\n\n\n看着绒布球吃完了饭，几个女仆稍稍收拾了一下，便把门关上了。毕竟，绒布球在出发之前，还是拒绝被奴役的…\n\n\n\n\n\n` “没有理由，就这么，让绒布球去接受奇怪的训练啊。”`\n\n\n\n\n\n监禁着绒布球的‘小’屋子，如果按一般人的意义的话，可真算不上小。如同高级酒店的总统套房一样，超大水床（虽然绒布球这几天都是睡在旁边的调教床上的）独立卫浴附带浴缸，两千多种智能香氛和各种感官音乐都预制在系统内部了。当然，如果绒布球厌倦了这些的话，以明的权势，更换起来也只是半天不到的时间。\n\n\n\n\n\n文娱系统第二天也都配齐了。从自己在之前读书的时候的各种辅导资料到计算机上数不胜数的各式游戏。到最后，连明之前限制严格的外出和社交媒体都悄悄的给绒布球开放了。\n\n\n\n\n\n在之后的小一个月里面，明从来没有，或者说，至少在绒布球的认知中，从没有正面的出现在自己的眼前。自己手边的玩具们先是一个一个的多了起来：先是最简单的震动棒，到乳夹，到男生们最爱的飞机杯（虽然绒布球只是好奇的用了几下就被扔在一边了）\n\n\n\n\n\n“真是奇怪啊，明明之前还完全禁止咱自慰呢……”\n\n\n\n\n\n“因为既然您实在不同意主人大人的要求，也不能把你就这么放回去。也便允许你自慰了。如果需要的话……”\n\n\n\n\n\n“我，自己就好……”\n\n\n\n\n\n“但是，如果玩的太过……”\n\n\n\n\n\n“那就不玩了！”，绒布球随手把床上一大堆小玩具一推，钻进被窝里，埋头睡觉。\n\n\n\n\n\n“真的可以嘛，只是蹭枕头的话很难受吧。”\n\n\n\n\n\n“闭嘴，汝出去。”\n\n\n\n\n\n“但是，明……”\n\n\n\n\n\n“烦死了！烦死了！出去！”\n\n\n\n\n\n绒布球紧紧的夹着枕头，像一条蛇一样把枕头夹在了自己的两腿之间。对于自己来说，能不能自慰什么的，其实早就习惯了。但是\n\n\n\n\n\n和单纯的性欲不一样，和单纯的媚药的感觉也不一样。哪怕夹枕头，甚至说靠着自己的小手抚慰一下自己，只能带来更多的欲望。身体上哪怕想，哪怕有那么一点点高兴，但过后，却是一种说不出的，想要的感觉。\n\n\n\n\n\n绒布球百聊无奈的躺在床上，把这堆小玩具推到一边，翻着手机\n\n\n\n\n\n“听说了吗？跨城市旅行竟然可以申请了！”\n\n\n\n\n\n“是啊！好想去看看外面的世界是什么样的啊。据说除了我们这块以外其他地方都可以随便性爱，能让人爽到炸裂呢……”\n\n\n\n\n\n网络上的返图里，各种各样的高级的大房子，虽然和绒布球目前居住的等级还是稍稍低了一些，但最关键的是：完全可以在去之前定制的各种主题装置和虚拟调教系统——依托网络，两个人就可以远程的虚拟进行调教。当然，完全依据程序的自动化设定也完全可以。广告词也很简单：“无论是想成为一个抖M或者一个抖S，完全虚拟，绝对安全！”\n\n\n\n\n\n这套系统，即便是对一般都市里面的人，也是极具吸引力的。更不用说对于这只关在屋子里的禁足了快一个月（然而实际上是因为绒布球实在是受不了每次出去都必须套上全身的kiger和口塞遮掩身份而自己赌气不出门导致的）的绒布球，更是直接下定了决心要出去玩一圈，反正审批什么的肯定也是明管……\n\n\n\n\n\n“所以，咱想出去玩！”\n\n\n\n\n\n“啊，都说了你想干啥就去要吧。反正城市资源什么的都是我的。我正在干正事……”\n\n\n\n\n\n“嗯。”，绒布球稍显的有点不安，也像是一个自己期望着获得一些，不同的答案，“那我出去了。”\n\n\n\n\n\n明只是摆了摆手，继续看着屏幕前这些文件：强行要求自己同意城市间的旅行，却允许了自己要求的极其苛刻的条件——无论旅行的人是谁，去向是哪，都得遵守本城市的基本法。这在之前简直是不敢想像的，对于这堆满脑子想把明的城市也同化成这种单纯是由奴隶和性欲组成的城市的人。\n\n\n\n\n\n“为什么呢？等下，刚刚绒布球递交了什么材料？！”\n\n\n\n\n\n“跨城市旅游的申请，主人。”\n\n\n\n\n\n“……”\n\n\n\n\n\n“主人，此时绒布球，已经在另一个城市了。”",
  "isMarkDown": true
}