{
    "pic": "nopic",
    "content": "# 集中调教中心的道具～\n\n\n## 调教中心的大型调教惩罚装置\n\n以下的话，是一些安装在绒布球调教中心的各类调教拘束装置\n\n因为占地和各种资产项目，都比较大。所以列报在这里进行记录……\n\n~~名字是不知道哪个中二的绒布球干的~~\n\n### 能引发奇迹的木马\n\n说是什么能引发奇迹都木马，其实只不过是一个奇怪的木质的装置罢了。\n\n制作材料是被故意做的粗糙的木板，和为了“减少摩擦”所加上的金属的边缘。倒是也方便在金属的边缘上增加电极之类的道具了。\n\n木马偏后的位置上则有一个竖起来的粗制木棍，由在木马内部的震动电机进行驱动。既可以像震动棒一样欺负绒布球都小穴/屁穴，也可以趁机一口气深深的插入到穴里面狠狠的责罚一通。\n\n只是放置的话，通过往脚上挂置重物应该也是一种简单而有效的惩罚方案。随着自己身体都全部重量都压在身体的一线上，应该也能给绒布球不小的压力吧。\n\n奇迹什么的，大概是那些放上去在极端痛苦和无限高潮中到达昏厥-崩溃-昏厥的循环的意思吧。\n\n### 镜花水月\n\n剥夺睡眠是一种可怕的刑罚，水刑也是；那两种夹在一起应该是一个更加痛苦的刑罚吧。于是在这个思想的指导下，这种刑罚便应运而生了。\n\n实际上刑具的外表只是一个固定起来都方形的玻璃皿而已，将绒布球完全固定好，从顶部的开口放入，整个刑罚便开始了。\n\n绒布球的每一个关节都被严格的拘束了起来，气体交换则是有正压的换气管进行。在这种完全无法行动任何的无聊的拘束下，如果绒布球被发现睡着了的话，在容器顶端的聚光灯便会立刻对准绒布球的眼睛进行强光照射型叫醒服务。（也可以选择在绒布球头上随机滴水以阻止绒布球睡着）\n\n在叫醒完成之后，原来的换气管将不再向容器内部输入氧气，而是灌入液体。灌入的速度一般是比较缓慢的，最快也需要1分钟才能把整个绒布球的口鼻浸没，让绒布球有一个准备，以免呛水。但排水同样也是非常慢，除非紧急情况，排水至少需要3分钟才能完成。\n\n液体视情况，可以选择纯净水、辣椒水或者媚药等。\n\n装置被安装在了调教中心的入口处，方便大家参观绒布球挣扎的样子。\n\n### 错乱的屠宰所\n\n将绒布球严格拘束在马圈的格子间里面，像挤奶场一样榨取绒布球乳汁的地方。\n\n把不听话的绒布球被固定在颈手枷上，锁住脚镣，吸上一周。哪怕是从来没出过一滴乳汁的萌新绒布球也可以从平平的小胸里面榨出几滴来。~~实在不行，就只好继续榨了~~\n\n绒布球的嘴被营养灌输管塞住，流式营养液和特别的药物（如果需要）将会直接送入绒布球的身体里面，完全不需要经过绒布球味觉系统的任何感受。绒布球唯一要做的，只是听话的服从机械的命令罢了。\n\n感官则被感官共感VR技术覆盖，帮助绒布球快速进入发情的状态，便于挤奶。\n\n> 完全没有高潮！没有高潮啊喂！人会死，wuwuwuemem！！！！！em～～——某个傲娇绒布球被榨一个月之前的发言，后来因为完全站不稳了所以就休假了几乎同样的时间。",
    "isMarkDown": true
  }