{
    "pic": "nopic",
    "content": "# 集中调教中心的道具～\n\n在有钱的绒布球的集体出资、出力的努力下，绒管基金会在5431年成立了。同时，虽然在各地都有大小不一的调教基地，但受制于当地法律法规和各种地域限制，对于满足超高强度和超长时间的绒布球调教存在巨大的障碍。故在*幻想中的某地*建立了本基地。这篇主要整理了些里面的道具。",
    "isMarkDown": true
  }