{
    "header": "迫害抖喵系列",
    "content": "<div class=\"collection\"><a href=\"#!\" class=\"modal-close collection-item\" onclick=\"reader('acted_doumiao/0')\">抖喵绒布球役</a><a href=\"#!\" class=\"modal-close collection-item\" onclick=\"reader('acted_doumiao/1')\">学渣x抖喵</a></div>",
    "footer": "<a  class=\"modal-close waves-effect waves-green btn-flat\" href=\"#!\">关闭</a>"
  }
  