{
    "header": "琥珀的小说",
    "content": "<div class=\"collection\"><a href=\"#!\" class=\"modal-close collection-item\" onclick=\"reader('hp_zijing/0')\">2019.12.27紫晶</a><a href=\"#!\" class=\"modal-close collection-item\" onclick=\"reader('hp_AAA/0')\">2019.10.01AAA</a></div>",
    "footer": "<a  class=\"modal-close waves-effect waves-green btn-flat\" href=\"#!\">关闭</a>"
  }
  