{
  "header": "设置",
  "content": "<p>设置内容将实时生效，主程序版本Ver1.2.2.5，数据版本data1.19</p><br><br>\n<div class=\"switch\"><label style=\"color: black\"> 禁用关卡背景图片模糊特效<input type=\"checkbox\" id=\"setting-pic\"\n            onchange=\"SettingSet('setting-pic',this.checked)\"><span class=\"lever\"></span></label></div>\n<div class=\"switch\"><label style=\"color: black\"> 禁用倒计时系统<input type=\"checkbox\" id=\"setting-notime\"\n            onchange=\"SettingSet('setting-notime',this.checked)\"><span class=\"lever\"></span></label></div><button\n    class=\"modal-close waves-effect waves-green btn-flat\" onclick=\"clean()\">清除全部信息</button><button\n    class=\"modal-close waves-effect waves-green btn-flat\" onclick='document.location=\"debugset.html\"'>开发者设置</button><button class=\"modal-close waves-effect waves-green btn-flat\" onclick='localStorage.removeItem(\"clsup\")'>移除游戏恢复信息</button>",
  "footer": "<a  class=\"modal-close waves-effect waves-green btn-flat\" href=\"#!\">关闭</a>"
}